{
  "MY_OVERLAYS": "My Overlays",
  "PUBLIC_OVERLAY_TEMPLATES": "Public Overlay Templates",
  "SEARCH_TEMPLATES": "Search by name or created by",
  "EMPTY_LIST": "None found",
  "CREATE_NEW_OVERLAY": "Create New Overlay",
  "VIEW": "View",
  "EDIT": "Edit",
  "DELETE": "Delete",
  "SELECT_LANGUAGE": "Select Language",
  "table.TITLE": "Title",
  "table.ARTIST": "Artist",
  "table.REQUESTED_BY": "Requested By",
  "table.AMOUNT": "Amount"
}
